Multiple linear regression
…
This is the first time were using the GGally package. We will be using the ggpairs function from this package later in the lab.

The data

The data were gathered from end of semester student evaluations for a large sample of professors from the University of Texas at Austin. In addition, six students rated the professors physical appearance. (This is a slightly modified version of the original data set that was released as part of the replication data for Data Analysis Using Regression and Multilevel/Hierarchical Models (Gelman and Hill 2007).) The result is a data frame where each row contains a different course and columns represent variables about the courses and professors.

Lets load the data:

data(evals)
evals

## # A tibble: 463 x 21
##    score         rank    ethnicity gender language   age cls_perc_eval
##    <dbl>       <fctr>       <fctr> <fctr>   <fctr> <int>         <dbl>
##  1   4.7 tenure track     minority female  english    36      55.81395
##  2   4.1 tenure track     minority female  english    36      68.80000
##  3   3.9 tenure track     minority female  english    36      60.80000
##  4   4.8 tenure track     minority female  english    36      62.60163
##  5   4.6      tenured not minority   male  english    59      85.00000
##  6   4.3      tenured not minority   male  english    59      87.50000
##  7   2.8      tenured not minority   male  english    59      88.63636
##  8   4.1      tenured not minority   male  english    51     100.00000
##  9   3.4      tenured not minority   male  english    51      56.92308
## 10   4.5      tenured not minority female  english    40      86.95652
## # ... with 453 more rows, and 14 more variables: cls_did_eval <int>,
## #   cls_students <int>, cls_level <fctr>, cls_profs <fctr>,
## #   cls_credits <fctr>, bty_f1lower <int>, bty_f1upper <int>,
## #   bty_f2upper <int>, bty_m1lower <int>, bty_m1upper <int>,
## #   bty_m2upper <int>, bty_avg <dbl>, pic_outfit <fctr>, pic_color <fctr>
…
