Introduction to linear regression
…
Lets load the packages.

library(statsr)
library(dplyr)
library(ggplot2)

The data

Lets load up the data for the 2011 season.

data(mlb11)
mlb11

## # A tibble: 30 x 12
##                   team  runs at_bats  hits homeruns bat_avg strikeouts
##                 <fctr> <int>   <int> <int>    <int>   <dbl>      <int>
##  1       Texas Rangers   855    5659  1599      210   0.283        930
##  2      Boston Red Sox   875    5710  1600      203   0.280       1108
##  3      Detroit Tigers   787    5563  1540      169   0.277       1143
##  4  Kansas City Royals   730    5672  1560      129   0.275       1006
##  5 St. Louis Cardinals   762    5532  1513      162   0.273        978
##  6       New York Mets   718    5600  1477      108   0.264       1085
##  7    New York Yankees   867    5518  1452      222   0.263       1138
##  8   Milwaukee Brewers   721    5447  1422      185   0.261       1083
##  9    Colorado Rockies   735    5544  1429      163   0.258       1201
## 10      Houston Astros   615    5598  1442       95   0.258       1164
## # ... with 20 more rows, and 5 more variables: stolen_bases <int>,
## #   wins <int>, new_onbase <dbl>, new_slug <dbl>, new_obs <dbl>
…
